…
```
## # A tibble: 68 x 6
##    feh   mt    sex   edu   hs    cs   
##    <fct> <fct> <fct> <fct> <fct> <fct>
##  1 0     0     0     0     0     0    
##  2 0     0     0     0     0     0    
##  3 0     0     0     0     0     0    
##  4 0     0     0     0     0     0    
##  5 0     0     0     0     0     0    
##  6 0     0     0     0     0     0    
##  7 0     0     0     0     0     0    
##  8 0     0     0     0     0     0    
##  9 0     0     0     0     0     0    
## 10 0     0     0     0     0     0    
## # … with 58 more rows
```
…
**Histogram of Variables 32 to 46**
All other prop_cat seem to have as much activity as 1, 2, and 5. 
prop_cat_1, 2, & 5 need to look at closer.

## Outlier Inspection


```r
soap %>% 
  select(feh, mt, sex, edu, hs, cs, affluence) %>%
  filter(affluence == 0)
```

```
## # A tibble: 69 x 7
##    feh   mt    sex   edu   hs    cs    affluence
##    <fct> <fct> <fct> <fct> <fct> <fct>     <dbl>
##  1 0     0     0     0     0     0             0
##  2 3     10    2     4     5     0             0
##  3 0     0     0     0     0     0             0
##  4 0     0     0     0     0     0             0
##  5 0     0     0     0     0     0             0
##  6 0     0     0     0     0     0             0
##  7 0     0     0     0     0     0             0
##  8 0     0     0     0     0     0             0
##  9 0     0     0     0     0     0             0
## 10 0     0     0     0     0     0             0
## # … with 59 more rows
```
…
```r
# Everything seems okay with these, nothing that seems off or strange like an error in inputting value into df.

soap %>% 
  mutate(vol_tran_check = round(tot_vol/num_trans, 2)) %>% 
  filter(vol_tran == vol_tran_check) %>% 
  select(vol_tran, vol_tran_check)
```

```
## # A tibble: 587 x 2
##    vol_tran vol_tran_check
##       <dbl>          <dbl>
##  1     334.           334.
##  2     349.           349.
##  3     367.           367.
##  4     375            375 
##  5     638.           638.
##  6     443.           443.
##  7     383.           383.
##  8     372            372 
##  9     981.           981.
## 10     414.           414.
## # … with 577 more rows
```
…
